652101 377267 509
65815 875001 525
385310 131785 443
915786 564501 525
233915 894139 525
145416 99447 375
437805 11990 449
273175 486598 449
379343 963386 525
263361 577165 470
842084 379021 525
745419 146670 509
828786 502513 509
195005 534606 470
321748 920110 525
42287 536136 470
30796 128733 354
213798 436201 449
608742 308517 470
283192 414264 449
714570 183661 509
738819 629071 504
710571 854274 525
208704 919577 525
124041 368760 443
298762 567084 470
317760 345720 384
963657 218294 525
270908 397851 441
280544 296214 389
940166 616272 525
650922 694617 442
797842 20663 509
768938 852176 525
1386 55375 340
336071 585471 470
582289 769773 509
619563 853930 525
988577 596015 525
422613 364516 449
974687 130030 525
497162 908610 525
363000 599951 470
711221 995580 525
777290 160104 509
594975 239890 470
922958 633263 525
694272 480180 509
336578 622220 470
194493 250397 443
819921 365338 509
756757 841297 525
118166 932580 525
209733 245852 443
23903 146514 375
262622 14530 443
917120 848168 476
356189 405811 436
319102 576921 470
931336 450734 525
202325 246431 443
499754 597338 470
51052 378428 443
734171 13812 509
124783 437621 449
608901 690560 509
172705 840014 525
293531 354630 441
993927 756423 525
99378 908054 525
209849 423749 449
886931 182249 525
23596 913708 525
898773 651684 525
532760 650110 509
881024 993495 507
38899 464985 449
769335 316000 509
421822 443643 418
984922 255098 525
778873 432730 509
346650 918286 525
315698 390542 441
871825 564013 525
585229 86976 470
135650 398496 443
415390 238015 449
274272 788269 509
496723 396063 449
436520 48737 449
496032 549117 470
170209 750854 509
622380 719291 509
551597 353749 470
93777 258901 443
462824 573980 470
447640 93905 449
575985 359170 470
535845 780627 509
748385 340768 509
678964 757865 504
486776 127308 449
631656 937987 525
198597 348415 443
976127 891089 507
146267 565550 470
585436 495643 470
599278 257873 470
42759 293928 443
419874 320847 449
500057 963366 525
667454 580549 509
226086 724174 509
241516 781492 509
807987 265764 509
262610 319493 407
283740 663096 509
242668 747950 509
660180 778728 504
498419 674482 509
813343 82725 509
695544 462741 509
417472 127941 449
156661 588133 470
901699 531227 525
264190 409887 441
828864 795998 468
204790 784762 509
695174 590795 509
431688 884819 525
709237 779248 468
48589 916952 525
110287 456766 449
532588 90743 470
329007 761810 509
943327 560543 525
866161 768042 525
455320 888215 525
913747 608420 525
868662 930224 476
653466 493119 509
766928 759843 380
624770 228290 470
528544 485865 470
822213 514205 509
202489 770576 509
594744 436777 470
191318 735249 509
497927 835933 509
848131 204791 525
4876 329747 443
224258 330827 443
961553 565741 525
335734 241479 407
88444 404406 443
576481 13504 470
558576 39362 470
447237 918564 525
940425 709857 525
112142 466077 449
920612 184242 525
416302 694657 509
590167 802915 509
779995 718771 468
289624 965352 525
360621 212437 443
290627 71046 443
675671 869127 525
63612 433363 449
863639 443040 525
794779 565794 509
370501 316050 441
804546 56579 509
921513 139775 525
793882 466148 509
429002 831716 509
904192 879845 445
712814 927648 525
574535 849580 525
22924 459988 449
452633 430955 400
413489 558989 470
151051 556175 470
314223 52365 443
616348 880308 525
836707 861322 525
899592 945771 507
2047 295316 443
842772 60865 525
440299 345394 449
128081 153956 375
304902 704494 509
620498 658783 509
801714 243022 509
571457 770446 509
448030 794384 509
330275 935462 525
610723 492424 470
299843 237630 407
36018 436148 449
671862 936882 525
63522 946705 525
307489 622990 470
279274 520750 470
929599 572661 525
841494 883986 432
400 111365 354
626242 505570 470
691013 34563 509
216442 107035 386
301319 564853 470
132147 348644 443
978427 291262 525
146753 437813 449
273498 535596 470
1596 765100 509
617893 591556 447
601707 965960 525
626511 357228 509
638453 491562 509
784678 798624 468
852160 442757 525
444851 615379 470
781401 140655 509
978833 636982 525
484204 234338 449
955523 135995 525
513777 593637 452
129898 588794 470
581782 819941 509
480896 67462 449
998870 540847 525
727048 293033 509
410852 106847 449
229213 181522 386
323361 299864 384
82758 315058 443
578028 481685 470
290034 429235 449
581214 623254 447
330603 445750 449
233178 690630 509
655607 531997 509
621123 73106 470
988407 698348 525
169263 317357 443
285389 124564 443
18264 223181 386
132066 365421 443
410485 785912 509
