732877 301387 509
150807 887339 525
430781 683225 509
41485 599682 470
620307 545368 452
844909 798625 525
13501 625659 470
646372 112096 509
190493 651163 509
633762 946114 525
204729 913489 525
707134 818725 468
214396 275949 443
735448 727137 380
392540 627872 509
422392 173259 449
226478 711571 509
351566 82161 443
283118 707776 509
720196 351230 509
38454 425588 449
105088 699251 509
930871 898218 476
304682 135506 443
529200 990790 525
15125 794146 509
179783 562954 470
93275 58522 351
530927 728438 509
365465 573730 470
818196 940695 525
682165 659996 442
195572 560030 470
490038 789193 509
216524 144820 386
489335 149571 449
989067 509733 525
469792 925075 525
951719 90104 525
283477 927906 525
40872 550927 470
923774 325640 525
591545 687250 509
499301 389961 449
349960 951040 525
578443 982372 525
897847 674681 525
444490 287636 449
161203 439190 449
323652 900330 525
341789 405 443
542552 316317 470
175324 920350 525
874957 176702 525
267410 121675 443
420223 172370 449
958786 401290 525
731737 595512 509
433300 774472 509
232944 455577 449
547764 913827 525
408118 19604 443
257664 404234 441
607523 293406 470
429767 225841 449
636138 858098 525
125092 357716 443
303373 332279 384
655162 265695 509
731773 512013 509
683507 543729 509
681532 102843 509
471060 412796 444
965458 944240 414
719692 793148 468
343827 993836 525
126286 4182 354
185580 853521 525
615150 322942 470
438545 132841 449
86848 149976 375
849210 478107 525
752380 869390 525
21196 338595 443
779295 43852 509
561432 279927 470
666346 974010 525
959912 73752 525
792565 887185 525
677788 197657 509
331807 62076 443
106404 592255 470
95434 597018 470
405140 557752 470
863509 258219 525
607235 375470 470
434765 119047 449
622784 948540 525
782065 275139 509
93432 95213 328
458551 909679 525
583488 886513 525
617096 154059 470
509216 880206 525
728032 914416 525
306143 45169 443
276388 208237 443
108212 950365 525
835122 412627 509
993310 922673 507
737322 301482 509
710827 776901 468
148707 114302 375
458866 624331 470
911516 230865 525
201512 969697 525
839789 767882 525
771081 717109 468
213174 136183 383
724422 682123 504
67793 220295 386
519397 478589 470
869506 891006 445
686685 359009 509
474475 896217 525
888227 897743 370
82379 937690 525
917071 517938 525
381238 384416 374
134412 700060 509
335014 16616 443
118038 262195 443
734419 864099 525
917634 281109 525
936909 564194 525
754469 743551 424
872546 533465 525
370684 176061 443
529894 429072 470
321501 149022 443
771459 67825 509
299185 554589 470
336994 208738 443
250858 552228 470
685174 592527 509
961780 420167 525
124053 235605 443
208687 712607 509
379215 577453 470
832093 841061 525
556565 718441 509
287511 133120 443
272824 668976 509
360806 707264 509
730486 812421 468
87068 113919 354
520465 617683 452
215544 755601 509
945543 167246 525
633136 245080 509
595836 291361 470
812035 90051 509
913270 821200 525
150713 275897 443
963766 596431 525
74921 498379 449
257992 381242 441
701701 972440 525
750053 42927 509
478372 584209 470
352093 554237 470
989316 879556 507
431271 948876 525
107230 323534 443
980821 601290 525
246045 667087 509
718124 958204 525
471507 120785 449
441881 170189 449
111503 444261 449
142233 480182 449
976013 659969 525
84645 545466 470
917438 159348 525
991206 752547 525
753954 655982 504
133070 932382 525
112570 427459 449
680709 667131 385
668967 929961 525
253575 317939 407
161337 688399 509
888599 400071 525
146156 930053 525
123502 547696 470
264108 863416 525
444479 216109 449
161744 502234 449
455941 950273 525
264104 33848 443
4729 299730 443
528687 134437 470
340861 677542 509
929980 409428 525
237807 18621 443
216196 421145 449
397392 856497 525
528549 899821 525
127196 871754 525
51492 341612 443
674640 874950 525
149217 237084 443
811312 544803 509
18510 981731 525
307738 518127 470
992049 6065 525
468793 69424 449
9148 562894 470
845935 866443 419
835422 487457 509
85573 709959 509
952104 296867 525
450618 741145 509
53520 72924 335
237100 369105 441
963334 602710 525
164546 500118 449
6937 338441 443
42756 502993 449
913000 420800 525
671721 996952 525
539080 900662 525
482433 441101 444
98831 207595 383
633401 245439 509
775332 51648 509
223062 679650 509
670625 767510 504
472966 498260 426
116442 7462 354
270545 577203 470
641650 250546 509
325096 82310 443
34757 58087 340
976289 889545 507
932100 271343 525
834025 50877 509
646385 539689 509
257992 184686 443
567168 424049 470
