692024 475562 509
672715 370015 509
980100 185738 525
460099 232317 449
92903 720638 509
867846 63781 525
211991 35345 383
905888 251677 525
333730 65620 443
247250 223301 443
523261 996149 525
615194 414617 470
284653 998299 525
292920 769496 509
997454 763625 525
412155 526249 470
632078 536590 509
811337 433040 509
598617 645791 509
840048 873840 432
959538 584995 525
481709 425108 444
891249 755793 525
465340 254571 449
704284 472345 509
376780 605823 470
980848 267149 525
948806 781490 525
978771 294187 525
548574 750608 509
496539 134947 449
692780 794181 504
767568 506604 509
34445 852945 525
256333 62024 443
283444 289471 389
598337 856592 525
569617 731971 509
698963 938438 525
281362 386088 441
717653 340431 509
190971 881642 525
219320 599547 470
845462 236914 525
887829 680201 525
823843 854892 525
870749 717957 525
585113 378634 470
121697 846221 525
237302 119633 443
442969 140962 449
651470 329703 509
94501 62497 351
683349 306210 509
885734 493532 525
303353 619779 470
226435 467489 449
529971 922127 525
378305 109738 443
510264 865965 525
627161 235571 509
894606 376516 525
173222 747273 509
560408 910475 525
33649 910354 525
353131 127640 443
726083 321671 509
239843 43640 443
24098 241448 443
470497 625548 470
233168 442349 449
835819 56542 509
930756 990288 507
915056 22697 525
202094 90373 383
320842 255593 407
517322 279760 470
755647 511776 509
146912 395742 443
806765 603918 509
957535 700567 525
22609 839166 525
5751 340671 443
440917 494557 444
203944 432646 449
953169 586714 525
993745 819131 525
211642 635788 509
445134 56222 449
110371 123115 349
802276 454463 509
260430 880601 525
485818 149784 449
657779 953274 525
394642 394110 255
825687 113168 509
594766 132882 470
333379 354409 441
617199 579335 447
368107 197415 443
315472 632460 509
103203 101797 310
989328 660406 525
889234 124166 525
621441 156670 470
526776 460594 470
190515 580860 470
257811 488576 449
747190 207573 509
858991 254102 525
811523 579958 509
943696 513870 525
399251 57123 443
934552 101527 525
100230 200271 383
238030 456798 449
104029 901877 525
217530 694056 509
1687 88232 351
527366 753723 509
339588 195955 443
232019 479522 449
312245 398908 441
482523 852009 525
761041 602989 509
183714 265303 443
786600 529011 509
567405 541653 452
174524 211489 373
483300 342114 449
632296 870058 525
633291 55440 509
750431 417291 509
58477 277200 443
269179 992677 525
27853 66606 340
74418 979881 525
779654 523147 509
64430 880734 525
998176 67169 525
794093 725030 468
949534 776828 525
283842 908641 525
431100 838009 525
162559 315830 443
423528 845406 525
161349 538373 470
459915 694242 509
261111 616138 470
182293 697767 509
270624 887019 525
338380 559956 470
691594 64966 509
465253 596687 470
474961 677612 509
489300 229892 449
918057 377046 525
193940 822352 509
408517 635446 509
795390 963474 525
437249 933677 525
727284 703130 504
29587 355566 443
776720 781639 437
288063 660756 509
260614 893085 525
119860 139014 344
296104 568882 470
566135 51146 470
772881 640306 504
702908 554340 509
274525 894373 525
274578 510572 449
130116 310101 443
370875 63443 443
8869 707621 509
626821 675165 442
552320 492972 470
957437 8468 525
538274 126199 470
343908 640243 509
793472 536512 509
483713 28602 449
813211 460083 509
30369 593161 470
417498 756793 509
758215 536323 509
515407 79958 470
224351 615052 470
572684 789279 509
149689 468129 449
71267 236983 443
8826 389276 443
236725 90544 443
182924 785298 509
258549 194003 443
968314 865851 507
119069 29772 354
32127 795336 509
843266 439666 525
442556 955865 525
44259 72359 340
953138 483539 525
215887 311478 443
409118 358361 436
905703 8831 525
419884 296113 449
393793 286420 441
394908 419895 449
64055 92712 351
744654 31302 509
175129 813893 509
68160 18471 340
909595 761446 525
296831 139181 443
408399 709759 509
578583 720072 509
77604 601055 470
91952 143960 375
721881 602366 509
302782 393764 441
425888 663217 509
102631 478216 449
997335 591699 525
192279 900804 525
772094 666490 504
79313 928107 525
714157 238613 509
11289 127516 354
648135 396493 509
351936 921442 525
317977 574887 470
882968 122300 525
248048 515772 470
445837 465035 444
485925 875983 525
114895 116048 349
622148 775432 509
378991 277961 441
93500 442368 449
11656 330918 443
220890 186786 386
13579 450070 449
616212 557156 447
276480 167935 443
301809 548548 470
968316 745315 525
255255 533412 470
930197 304784 525
56804 11965 340
