373117 666861 509
80741 45361 351
465992 934124 525
258163 542411 470
839046 872343 432
69128 218339 386
961963 473342 525
104607 288626 443
77020 649061 509
567688 479919 470
156750 866725 525
624648 838997 525
879133 785946 525
632786 941479 525
159360 646046 509
68375 229153 386
773266 863380 525
832592 112075 509
807070 94517 509
734188 260926 509
564115 433727 470
753904 490873 509
588145 610402 403
575307 307659 470
449803 126147 449
473902 556611 470
111765 851770 525
644169 531492 509
874721 139529 525
408439 891850 525
278123 791211 509
922683 618130 525
187265 758383 509
779078 479117 509
905651 317939 525
427114 441790 400
423736 806405 509
987034 44241 525
868740 537107 525
767109 47155 509
13688 98015 351
50718 976446 525
321941 660610 509
708798 149602 509
198777 870968 525
610735 634342 509
226201 182793 386
877305 323142 525
461920 480256 413
861634 411433 525
24290 257536 443
678421 760570 504
510366 846025 525
722166 664523 504
43101 92835 351
878643 487932 525
896931 365363 525
324461 920636 525
422216 794160 509
931201 586539 525
363731 441068 449
40003 764067 509
608099 534518 452
872854 228967 525
84090 228362 386
138466 723959 509
307172 553643 470
956778 454172 525
490346 113024 449
987418 154667 525
798677 301239 509
194320 567678 470
83119 787159 509
822548 110346 509
958160 736264 525
629478 232343 509
618175 91749 470
800891 714200 468
297254 926903 525
576652 69099 470
382067 47790 443
181953 722062 509
49236 922168 525
635379 618114 509
615785 628767 509
998877 885752 507
958963 510033 525
504424 256320 449
740230 856300 525
369994 60864 443
567020 908586 525
783201 963696 525
480105 363946 449
215486 145167 383
913942 306031 525
301969 884531 525
942230 669486 525
173758 176442 334
456193 525417 470
270352 904078 525
927452 578795 525
779709 483611 509
792928 73190 509
669494 743448 504
573576 543713 452
782622 815790 468
874769 673730 525
520750 254067 470
68218 197725 383
709638 637542 504
280400 838804 525
830928 909198 525
990846 143132 525
888788 909162 445
479273 795154 509
813551 573912 509
445533 999537 525
724313 570370 509
884490 652708 525
595693 914117 525
572827 784197 509
917500 680107 525
185763 773258 509
536853 476524 470
186140 72009 383
716346 668519 504
977070 110270 525
30221 412860 449
39352 926211 525
565097 920170 525
136827 123133 344
970971 831213 525
816920 236690 509
902085 387913 525
205616 169256 365
496985 382596 449
591855 182530 470
30278 875949 525
21226 88037 351
842276 829625 525
917765 621445 525
241750 507781 449
355126 245920 441
192498 361753 443
224772 439335 449
298311 708532 509
275070 237748 407
233717 692854 509
435128 784534 509
70770 947168 525
106468 954484 525
318397 16028 443
586577 591619 359
100438 859943 525
695804 480385 509
508076 733437 509
519407 809482 509
931594 324559 525
720267 830909 468
441697 756490 509
839281 781000 525
995823 666279 525
423085 672066 509
136007 662600 509
961654 957122 414
414740 749333 509
685778 708800 504
408652 45525 443
719009 937123 525
791848 450965 509
364517 617941 470
737571 343103 509
671738 74743 509
512579 665023 509
467974 947420 525
968845 109761 525
653662 582066 509
683612 537937 509
700938 193569 509
339263 630041 509
680950 682366 336
807392 30095 509
162599 954208 525
338188 394638 441
485229 283722 449
808772 133337 509
494795 324782 449
187764 641650 509
276701 429978 449
749462 499507 509
175548 943702 525
605754 589438 403
891429 42707 525
126602 819656 509
729948 456312 509
441426 210230 449
44783 721210 509
977044 874673 507
481706 373655 449
751236 841748 525
825253 623600 509
754361 391749 509
605720 93292 470
895611 139016 525
798527 914859 525
975263 148318 525
677540 514335 509
123523 902636 525
77916 595912 470
548359 413539 470
268761 681338 509
524268 930906 525
231543 270822 407
380483 243957 441
708229 807332 468
78268 995347 525
712427 555815 509
269133 447472 449
945562 11345 525
901004 31126 525
846416 930349 476
589770 531272 452
688104 707700 504
245651 529273 470
551467 238618 470
319439 183694 443
959831 90278 525
85257 234854 443
582632 934229 525
999108 506627 525
397828 326044 441
188840 522345 470
691636 573280 509
28618 550866 470
902620 834591 525
380577 839326 525
414136 573416 470
152951 106453 375
780566 959505 525
548604 417455 470
89090 485295 449
992564 768511 525
525873 437258 470
180132 105728 383
283755 375215 441
801727 259497 509
791588 621413 509
100912 325432 443
608301 824679 509
612045 69372 470
396195 287024 441
915824 292376 525
556018 595661 434
131420 289139 443
109812 547930 470
444257 784219 509
744712 981194 525
740263 971597 525
419673 29148 449
581156 613978 434
249126 509335 449
296353 483434 449
384610 617484 470
709723 614282 509
260953 899371 525
580273 766224 509
575942 822978 509
24405 98540 351
580077 53247 470
208514 872759 525
725232 244076 509
356767 219257 443
849517 451824 525
606238 487130 470
130579 126504 344
739799 608327 509
840034 660136 525
909801 147111 525
956958 824531 525
505126 302108 449
509021 652413 509
377480 44616 443
871280 164897 525
281541 807664 509
791276 983468 525
71060 926846 525
483501 187680 449
218921 440157 449
591844 784514 509
446281 70172 449
920814 162720 525
720148 386340 509
788488 607483 509
410679 997647 525
115028 126108 349
6364 112346 354
477363 255073 449
533358 921748 525
754094 610390 509
