546813 599595 434
681091 29113 509
762100 135027 509
54702 305569 443
634285 515171 509
769798 981504 525
886733 479894 525
137009 302397 443
324966 887159 525
113247 779361 509
421882 342225 449
664551 60388 509
226241 833945 509
828914 324106 509
864805 388816 525
265702 6834 443
587813 980552 525
209448 754624 509
962226 514562 525
817057 68398 509
191747 179306 365
402639 654344 509
65816 895388 525
87163 772887 509
117891 621136 470
385629 101741 443
431883 522340 470
85622 959403 525
817365 16442 509
370314 580362 470
136023 898394 525
104280 696719 509
811092 808876 406
694353 446679 509
616886 895920 525
305732 988568 525
253619 683864 509
571858 706580 509
780043 718929 468
965500 62199 525
490820 774611 509
372624 873941 525
133034 165369 383
917665 737172 525
617621 145500 470
445686 280796 449
534090 263475 470
285123 69045 443
890714 779843 525
986552 627780 525
934213 203524 525
31372 327596 443
184728 319059 443
275102 20827 443
961040 774870 525
614007 790056 509
758031 644857 504
583680 268287 470
49294 316460 443
628741 905188 525
874285 214404 525
378667 841957 525
204507 721069 509
695253 293570 509
973904 807079 525
124869 711576 509
150107 434569 449
840831 406801 525
551089 781978 509
773064 304092 509
718891 574288 509
403897 178647 443
285561 211092 443
281286 785714 509
997456 234342 525
11611 319608 443
910500 116350 525
458865 653090 509
476546 954789 525
750337 940487 525
235705 53403 443
117701 134827 344
635557 357424 509
700662 105801 509
393509 257168 441
362312 663321 509
549129 170167 470
638159 962463 525
282116 863312 525
599464 580486 434
956796 338904 525
327666 137982 443
507745 12839 449
994055 85359 525
351132 512254 470
720557 968330 525
425725 275572 449
273962 281180 389
603079 620893 447
991482 87817 525
954929 431493 525
969106 852128 507
882831 105609 525
688072 440266 509
99520 923287 525
721975 294228 509
957896 256032 525
51150 808420 509
220602 901900 525
284433 198267 443
522606 782618 509
487630 233597 449
71299 748687 509
946181 662444 525
232994 275995 407
352421 705324 509
469395 358072 449
837659 295798 509
841877 758404 525
341722 797698 509
55077 287451 443
874992 697388 525
575559 219931 470
335621 136839 443
897175 33469 525
17968 747494 509
904796 586934 525
916377 967476 507
318217 881106 525
774492 831850 468
765781 663102 504
752809 906476 525
910979 719513 525
102687 78088 341
273906 661021 509
544036 835230 509
781306 497626 509
673214 122150 509
146968 774470 509
527548 625894 452
146219 925853 525
148142 938213 525
291848 961442 525
261260 106178 443
233928 979694 525
756005 796864 468
158775 883000 525
367392 578957 470
945792 844325 507
21953 924483 525
610296 638872 509
406892 996556 525
824585 784820 468
150824 233376 443
7338 784289 509
492208 632124 509
224033 401488 443
513736 585425 452
67442 537963 470
707725 246521 509
555356 51008 470
541213 998038 525
781163 886095 525
238005 169827 443
486372 938636 525
887697 465313 525
688599 429333 509
124633 900636 525
317777 809768 509
594936 868718 525
287501 59926 443
899542 160210 525
535179 331789 470
489054 346980 449
888453 268270 525
662208 111907 509
956065 59549 525
165271 161401 339
179913 217728 386
902397 476936 525
743169 664659 504
118477 508620 449
563259 138464 470
522198 924998 525
410196 178878 449
140238 974180 525
738735 70416 509
523084 154671 470
149669 377155 443
645423 461374 509
175365 806620 509
494848 409515 449
436312 211995 449
58997 100854 351
137239 769432 509
46294 16564 324
144543 51521 375
263104 662478 509
176395 696853 509
910783 787611 525
81850 196443 383
234343 940094 525
396561 98592 443
719798 810499 468
309635 382801 441
430593 780222 509
618328 241809 470
304567 267317 407
33155 243645 443
647833 412491 509
781242 347911 509
741632 962480 525
602735 421589 470
269836 797158 509
661438 119930 509
971201 960228 458
508326 985809 525
700241 38222 509
144147 724853 509
111894 947310 525
189561 441236 449
792719 488228 509
468876 451786 444
515008 632158 509
66615 186516 383
584782 473127 470
835604 815631 450
979298 143601 525
930345 763508 525
443658 977654 525
448594 596912 470
312861 772769 509
278937 475150 449
807458 807357 313
849708 879934 432
501965 535858 470
17594 121921 354
126351 42979 354
267663 533340 470
316929 193569 443
269907 883708 525
6398 147293 375
957415 536560 525
117629 952123 525
447493 353891 449
661147 384604 509
869112 225025 525
385633 526252 470
309112 586818 470
361386 895978 525
